2020-10-04/15:30:57		 HealthPrem_26092020_131534.csv: Quotes added successfully!!
2020-10-04/15:41:53		 HealthPrem_26092020_131534.csv: Quotes added successfully!!
2020-10-04/16:00:14		 HealthPrem_26092020_131534.csv: Quotes added successfully!!
2020-10-04/16:22:13		 HealthPrem_26092020_131534.csv: Quotes added successfully!!
2020-10-04/16:45:54		 HealthPrem_26092020_131534.csv: Quotes added successfully!!
2020-10-04/16:57:47		 HealthPrem_26092020_131534.csv: Quotes added successfully!!
2020-10-04/17:01:33		 HealthPrem_26092020_131534.csv: Quotes added successfully!!
2020-10-04/17:06:54		 HealthPrem_26092020_131534.csv: Quotes added successfully!!
2020-10-04/17:18:00		 HealthPrem_26092020_131534.csv: Quotes added successfully!!
2020-10-04/17:30:52		 HealthPrem_26092020_131534.csv: Quotes added successfully!!
2020-10-04/17:44:11		 HealthPrem_26092020_131534.csv: Quotes added successfully!!
2020-10-04/18:04:37		 HealthPrem_26092020_131534.csv: Quotes added successfully!!
2020-10-07/13:04:38		 HealthPrem_26092020_131534.csv: Quotes added successfully!!
2020-10-07/13:07:00		 HealthPrem_26092020_131534.csv: Quotes added successfully!!
2020-10-07/13:12:09		 HealthPrem_26092020_131534.csv: Quotes added successfully!!
2020-10-07/13:13:25		 HealthPrem_26092020_131534.csv: Quotes added successfully!!
2020-10-07/13:16:10		 HealthPrem_26092020_131534.csv: Quotes added successfully!!
2020-10-07/13:19:42		 HealthPrem_26092020_131534.csv: Quotes added successfully!!
2020-10-07/13:20:45		 HealthPrem_26092020_131534.csv: Quotes added successfully!!
2020-10-07/19:53:42		 HealthPrem_26092020_131534.csv: Quotes added successfully!!
2020-10-07/22:32:00		 HealthPrem_26092020_131534.csv: Quotes added successfully!!
2020-10-07/22:35:12		 HealthPrem_26092020_131534.csv: Quotes added successfully!!
2020-10-07/22:39:43		 HealthPrem_26092020_131534.csv: Quotes added successfully!!
2020-10-15/19:47:13		 HealthPrem_26092020_131534.csv: Quotes added successfully!!
2020-10-16/19:49:29		 HealthPrem_26092020_131534.csv: Quotes added successfully!!
2020-10-17/13:24:19		 HealthPrem_26092020_131534.csv: Quotes added successfully!!
2020-10-17/13:41:24		 HealthPrem_26092020_131534.csv: Quotes added successfully!!
2020-11-04/19:33:29		 HealthPrem_26092020_131534.csv: Quotes added successfully!!
2020-11-08/19:59:28		 HealthPrem_26092020_131534.csv: Quotes added successfully!!
2020-11-08/21:38:11		 HealthPrem_26092020_131534.csv: Quotes added successfully!!
2020-11-08/21:39:35		 HealthPrem_26092020_131534.csv: Quotes added successfully!!
2020-11-08/21:44:02		 HealthPrem_26092020_131534.csv: Quotes added successfully!!
2020-11-08/21:49:18		 HealthPrem_26092020_131534.csv: Quotes added successfully!!
2020-11-08/21:54:37		 HealthPrem_26092020_131534.csv: Quotes added successfully!!
2020-11-08/21:57:26		 HealthPrem_26092020_131534.csv: Quotes added successfully!!
2020-11-09/21:35:09		 HealthPrem_26092020_131534.csv: Quotes added successfully!!
2020-12-22/21:44:52		 HealthPrem_26092020_131534.csv: Quotes added successfully!!
2020-12-25/12:28:09		 HealthPrem_26092020_131534.csv: Quotes added successfully!!
2020-12-29/23:24:15		 HealthPrem_26092020_131534.csv: Quotes added successfully!!
2020-12-29/23:47:21		 HealthPrem_26092020_131534.csv: Quotes added successfully!!
