2020-10-04/13:30:27		Opened Prediction database successfully
2020-10-04/13:30:27		Closed Prediction database successfully
2020-10-04/13:30:31		Opened Prediction database successfully
2020-10-04/13:30:42		Opened Prediction database successfully
2020-10-04/13:43:36		Opened Prediction database successfully
2020-10-04/13:43:36		Closed Prediction database successfully
2020-10-04/13:43:39		Opened Prediction database successfully
2020-10-04/13:43:56		Opened Prediction database successfully
2020-10-04/13:51:00		Opened Prediction database successfully
2020-10-04/13:51:01		Closed Prediction database successfully
2020-10-04/13:51:03		Opened Prediction database successfully
2020-10-04/13:51:11		Opened Prediction database successfully
2020-10-04/15:14:18		Opened Prediction database successfully
2020-10-04/15:15:17		Closed Prediction database successfully
2020-10-04/15:15:37		Opened Prediction database successfully
2020-10-04/15:31:04		Opened Prediction database successfully
2020-10-04/15:31:05		Closed Prediction database successfully
2020-10-04/15:31:11		Opened Prediction database successfully
2020-10-04/15:35:05		Opened Prediction database successfully
2020-10-04/15:41:59		Opened Prediction database successfully
2020-10-04/15:42:19		Closed Prediction database successfully
2020-10-04/15:42:26		Opened Prediction database successfully
2020-10-04/15:44:29		Opened Prediction database successfully
2020-10-04/16:00:16		Opened Prediction database successfully
2020-10-04/16:00:16		Closed Prediction database successfully
2020-10-04/16:00:19		Opened Prediction database successfully
2020-10-04/16:00:42		Opened Prediction database successfully
2020-10-04/16:22:15		Opened Prediction database successfully
2020-10-04/16:22:15		Closed Prediction database successfully
2020-10-04/16:22:17		Opened Prediction database successfully
2020-10-04/16:22:45		Opened Prediction database successfully
2020-10-04/16:45:55		Opened Prediction database successfully
2020-10-04/16:45:55		Closed Prediction database successfully
2020-10-04/16:46:01		Opened Prediction database successfully
2020-10-04/16:46:31		Opened Prediction database successfully
2020-10-04/16:57:49		Opened Prediction database successfully
2020-10-04/16:57:49		Closed Prediction database successfully
2020-10-04/16:57:51		Opened Prediction database successfully
2020-10-04/16:58:13		Opened Prediction database successfully
2020-10-04/17:01:36		Opened Prediction database successfully
2020-10-04/17:01:37		Closed Prediction database successfully
2020-10-04/17:01:39		Opened Prediction database successfully
2020-10-04/17:02:05		Opened Prediction database successfully
2020-10-04/17:06:56		Opened Prediction database successfully
2020-10-04/17:06:56		Closed Prediction database successfully
2020-10-04/17:06:59		Opened Prediction database successfully
2020-10-04/17:07:44		Opened Prediction database successfully
2020-10-04/17:18:03		Opened Prediction database successfully
2020-10-04/17:18:03		Closed Prediction database successfully
2020-10-04/17:18:06		Opened Prediction database successfully
2020-10-04/17:18:46		Opened Prediction database successfully
2020-10-04/17:30:56		Opened Prediction database successfully
2020-10-04/17:30:56		Closed Prediction database successfully
2020-10-04/17:31:00		Opened Prediction database successfully
2020-10-04/17:31:34		Opened Prediction database successfully
2020-10-04/17:44:13		Opened Prediction database successfully
2020-10-04/17:44:13		Closed Prediction database successfully
2020-10-04/17:44:15		Opened Prediction database successfully
2020-10-04/17:44:39		Opened Prediction database successfully
2020-10-04/18:04:40		Opened Prediction database successfully
2020-10-04/18:04:40		Closed Prediction database successfully
2020-10-04/18:04:43		Opened Prediction database successfully
2020-10-04/18:05:06		Opened Prediction database successfully
2020-10-07/13:04:38		Opened Prediction database successfully
2020-10-07/13:04:38		Closed Prediction database successfully
2020-10-07/13:04:38		Opened Prediction database successfully
2020-10-07/13:04:51		Opened Prediction database successfully
2020-10-07/13:07:00		Opened Prediction database successfully
2020-10-07/13:07:01		Closed Prediction database successfully
2020-10-07/13:07:01		Opened Prediction database successfully
2020-10-07/13:07:13		Opened Prediction database successfully
2020-10-07/13:12:09		Opened Prediction database successfully
2020-10-07/13:12:10		Closed Prediction database successfully
2020-10-07/13:12:10		Opened Prediction database successfully
2020-10-07/13:12:21		Opened Prediction database successfully
2020-10-07/13:13:25		Opened Prediction database successfully
2020-10-07/13:13:25		Closed Prediction database successfully
2020-10-07/13:13:25		Opened Prediction database successfully
2020-10-07/13:13:37		Opened Prediction database successfully
2020-10-07/13:16:10		Opened Prediction database successfully
2020-10-07/13:16:10		Closed Prediction database successfully
2020-10-07/13:16:10		Opened Prediction database successfully
2020-10-07/13:16:23		Opened Prediction database successfully
2020-10-07/13:19:42		Opened Prediction database successfully
2020-10-07/13:19:42		Closed Prediction database successfully
2020-10-07/13:19:42		Opened Prediction database successfully
2020-10-07/13:19:56		Opened Prediction database successfully
2020-10-07/13:20:45		Opened Prediction database successfully
2020-10-07/13:20:45		Closed Prediction database successfully
2020-10-07/13:20:45		Opened Prediction database successfully
2020-10-07/13:20:58		Opened Prediction database successfully
2020-10-07/19:53:45		Opened Prediction database successfully
2020-10-07/19:53:45		Closed Prediction database successfully
2020-10-07/19:53:48		Opened Prediction database successfully
2020-10-07/19:54:11		Opened Prediction database successfully
2020-10-07/21:18:25		Opened Prediction database successfully
2020-10-07/21:18:26		Closed Prediction database successfully
2020-10-07/21:18:26		Opened Prediction database successfully
2020-10-07/21:18:26		Opened Prediction database successfully
2020-10-07/21:18:40		Opened Prediction database successfully
2020-10-07/21:18:40		Closed Prediction database successfully
2020-10-07/21:18:40		Opened Prediction database successfully
2020-10-07/21:18:40		Opened Prediction database successfully
2020-10-07/21:19:31		Opened Prediction database successfully
2020-10-07/21:19:31		Closed Prediction database successfully
2020-10-07/21:19:31		Opened Prediction database successfully
2020-10-07/21:19:31		Opened Prediction database successfully
2020-10-07/21:20:12		Opened Prediction database successfully
2020-10-07/21:20:12		Closed Prediction database successfully
2020-10-07/21:20:12		Opened Prediction database successfully
2020-10-07/21:20:12		Opened Prediction database successfully
2020-10-07/21:20:39		Opened Prediction database successfully
2020-10-07/21:20:39		Closed Prediction database successfully
2020-10-07/21:20:39		Opened Prediction database successfully
2020-10-07/21:20:40		Opened Prediction database successfully
2020-10-07/21:54:22		Opened Prediction database successfully
2020-10-07/21:54:22		Closed Prediction database successfully
2020-10-07/21:54:22		Opened Prediction database successfully
2020-10-07/21:54:22		Opened Prediction database successfully
2020-10-07/22:00:08		Opened Prediction database successfully
2020-10-07/22:00:29		Closed Prediction database successfully
2020-10-07/22:00:37		Opened Prediction database successfully
2020-10-07/22:01:11		Opened Prediction database successfully
2020-10-07/22:03:42		Opened Prediction database successfully
2020-10-07/22:03:42		Closed Prediction database successfully
2020-10-07/22:05:53		Opened Prediction database successfully
2020-10-07/22:06:12		Opened Prediction database successfully
2020-10-07/22:08:35		Opened Prediction database successfully
2020-10-07/22:08:35		Closed Prediction database successfully
2020-10-07/22:08:37		Opened Prediction database successfully
2020-10-07/22:08:49		Opened Prediction database successfully
2020-10-07/22:14:22		Opened Prediction database successfully
2020-10-07/22:14:22		Closed Prediction database successfully
2020-10-07/22:14:24		Opened Prediction database successfully
2020-10-07/22:14:38		Opened Prediction database successfully
2020-10-07/22:32:02		Opened Prediction database successfully
2020-10-07/22:32:02		Closed Prediction database successfully
2020-10-07/22:32:04		Opened Prediction database successfully
2020-10-07/22:32:18		Opened Prediction database successfully
2020-10-07/22:35:12		Opened Prediction database successfully
2020-10-07/22:35:12		Closed Prediction database successfully
2020-10-07/22:35:12		Opened Prediction database successfully
2020-10-07/22:35:13		Opened Prediction database successfully
2020-10-07/22:39:43		Opened Prediction database successfully
2020-10-07/22:39:43		Closed Prediction database successfully
2020-10-07/22:39:43		Opened Prediction database successfully
2020-10-07/22:39:44		Opened Prediction database successfully
2020-10-15/19:24:21		Opened Prediction database successfully
2020-10-15/19:24:21		Closed Prediction database successfully
2020-10-15/19:24:21		Opened Prediction database successfully
2020-10-15/19:24:21		Opened Prediction database successfully
2020-10-15/19:27:34		Opened Prediction database successfully
2020-10-15/19:27:34		Closed Prediction database successfully
2020-10-15/19:27:34		Opened Prediction database successfully
2020-10-15/19:27:34		Opened Prediction database successfully
2020-10-15/19:28:43		Opened Prediction database successfully
2020-10-15/19:28:43		Closed Prediction database successfully
2020-10-15/19:28:43		Opened Prediction database successfully
2020-10-15/19:28:44		Opened Prediction database successfully
2020-10-15/19:29:10		Opened Prediction database successfully
2020-10-15/19:29:10		Closed Prediction database successfully
2020-10-15/19:29:10		Opened Prediction database successfully
2020-10-15/19:29:10		Opened Prediction database successfully
2020-10-15/19:31:01		Opened Prediction database successfully
2020-10-15/19:31:01		Closed Prediction database successfully
2020-10-15/19:31:05		Opened Prediction database successfully
2020-10-15/19:31:22		Opened Prediction database successfully
2020-10-15/19:37:11		Opened Prediction database successfully
2020-10-15/19:37:11		Closed Prediction database successfully
2020-10-15/19:37:11		Opened Prediction database successfully
2020-10-15/19:37:11		Opened Prediction database successfully
2020-10-15/19:40:03		Opened Prediction database successfully
2020-10-15/19:40:03		Closed Prediction database successfully
2020-10-15/19:40:03		Opened Prediction database successfully
2020-10-15/19:40:03		Opened Prediction database successfully
2020-10-15/19:43:33		Opened Prediction database successfully
2020-10-15/19:43:33		Closed Prediction database successfully
2020-10-15/19:43:33		Opened Prediction database successfully
2020-10-15/19:43:34		Opened Prediction database successfully
2020-10-15/19:47:13		Opened Prediction database successfully
2020-10-15/19:47:13		Closed Prediction database successfully
2020-10-15/19:47:13		Opened Prediction database successfully
2020-10-15/19:47:14		Opened Prediction database successfully
2020-10-16/19:49:29		Opened Prediction database successfully
2020-10-16/19:49:29		Closed Prediction database successfully
2020-10-16/19:49:29		Opened Prediction database successfully
2020-10-16/19:49:30		Opened Prediction database successfully
2020-10-17/13:24:19		Opened Prediction database successfully
2020-10-17/13:24:19		Closed Prediction database successfully
2020-10-17/13:24:19		Opened Prediction database successfully
2020-10-17/13:24:20		Opened Prediction database successfully
2020-10-17/13:41:24		Opened Prediction database successfully
2020-10-17/13:41:24		Closed Prediction database successfully
2020-10-17/13:41:24		Opened Prediction database successfully
2020-10-17/13:41:25		Opened Prediction database successfully
2020-11-04/19:33:29		Opened Prediction database successfully
2020-11-04/19:33:30		Closed Prediction database successfully
2020-11-04/19:33:30		Opened Prediction database successfully
2020-11-08/19:59:28		Opened Prediction database successfully
2020-11-08/19:59:29		Closed Prediction database successfully
2020-11-08/19:59:29		Opened Prediction database successfully
2020-11-08/19:59:40		Opened Prediction database successfully
2020-11-08/21:38:11		Opened Prediction database successfully
2020-11-08/21:38:11		Closed Prediction database successfully
2020-11-08/21:38:11		Opened Prediction database successfully
2020-11-08/21:38:21		Opened Prediction database successfully
2020-11-08/21:39:35		Opened Prediction database successfully
2020-11-08/21:39:35		Closed Prediction database successfully
2020-11-08/21:39:36		Opened Prediction database successfully
2020-11-08/21:39:45		Opened Prediction database successfully
2020-11-08/21:44:02		Opened Prediction database successfully
2020-11-08/21:44:03		Closed Prediction database successfully
2020-11-08/21:44:03		Opened Prediction database successfully
2020-11-08/21:44:13		Opened Prediction database successfully
2020-11-08/21:49:18		Opened Prediction database successfully
2020-11-08/21:49:19		Closed Prediction database successfully
2020-11-08/21:49:19		Opened Prediction database successfully
2020-11-08/21:49:29		Opened Prediction database successfully
2020-11-08/21:54:37		Opened Prediction database successfully
2020-11-08/21:54:38		Closed Prediction database successfully
2020-11-08/21:54:38		Opened Prediction database successfully
2020-11-08/21:54:48		Opened Prediction database successfully
2020-11-08/21:57:26		Opened Prediction database successfully
2020-11-08/21:57:27		Closed Prediction database successfully
2020-11-08/21:57:27		Opened Prediction database successfully
2020-11-08/21:57:37		Opened Prediction database successfully
2020-11-09/21:35:09		Opened Prediction database successfully
2020-11-09/21:35:10		Closed Prediction database successfully
2020-11-09/21:35:10		Opened Prediction database successfully
2020-11-09/21:35:20		Opened Prediction database successfully
2020-12-22/21:44:52		Opened Prediction database successfully
2020-12-22/21:44:53		Closed Prediction database successfully
2020-12-22/21:44:53		Opened Prediction database successfully
2020-12-22/21:45:03		Opened Prediction database successfully
2020-12-25/12:28:09		Opened Prediction database successfully
2020-12-25/12:28:10		Closed Prediction database successfully
2020-12-25/12:28:10		Opened Prediction database successfully
2020-12-25/12:28:31		Opened Prediction database successfully
2020-12-29/23:24:15		Opened Prediction database successfully
2020-12-29/23:24:16		Closed Prediction database successfully
2020-12-29/23:24:16		Opened Prediction database successfully
2020-12-29/23:24:39		Opened Prediction database successfully
2020-12-29/23:47:21		Opened Prediction database successfully
2020-12-29/23:47:22		Closed Prediction database successfully
2020-12-29/23:47:22		Opened Prediction database successfully
2020-12-29/23:47:50		Opened Prediction database successfully
