2020-10-04/13:30:07		Missing Values Validation Started!!
2020-10-04/13:43:00		Missing Values Validation Started!!
2020-10-04/13:50:48		Missing Values Validation Started!!
2020-10-04/15:10:38		Missing Values Validation Started!!
2020-10-04/15:25:16		Missing Values Validation Started!!
2020-10-04/15:30:14		Missing Values Validation Started!!
2020-10-04/15:40:54		Missing Values Validation Started!!
2020-10-04/15:59:59		Missing Values Validation Started!!
2020-10-04/16:21:59		Missing Values Validation Started!!
2020-10-04/16:45:38		Missing Values Validation Started!!
2020-10-04/16:57:42		Missing Values Validation Started!!
2020-10-04/17:01:17		Missing Values Validation Started!!
2020-10-04/17:06:35		Missing Values Validation Started!!
2020-10-04/17:17:33		Missing Values Validation Started!!
2020-10-04/17:30:31		Missing Values Validation Started!!
2020-10-04/17:43:52		Missing Values Validation Started!!
2020-10-04/18:04:23		Missing Values Validation Started!!
2020-10-07/13:04:38		Missing Values Validation Started!!
2020-10-07/13:07:00		Missing Values Validation Started!!
2020-10-07/13:12:09		Missing Values Validation Started!!
2020-10-07/13:13:25		Missing Values Validation Started!!
2020-10-07/13:16:10		Missing Values Validation Started!!
2020-10-07/13:19:42		Missing Values Validation Started!!
2020-10-07/13:20:45		Missing Values Validation Started!!
2020-10-07/19:53:37		Missing Values Validation Started!!
2020-10-07/21:18:25		Missing Values Validation Started!!
2020-10-07/21:18:40		Missing Values Validation Started!!
2020-10-07/21:19:31		Missing Values Validation Started!!
2020-10-07/21:20:12		Missing Values Validation Started!!
2020-10-07/21:20:39		Missing Values Validation Started!!
2020-10-07/21:54:22		Missing Values Validation Started!!
2020-10-07/21:59:59		Missing Values Validation Started!!
2020-10-07/22:03:28		Missing Values Validation Started!!
2020-10-07/22:08:29		Missing Values Validation Started!!
2020-10-07/22:14:16		Missing Values Validation Started!!
2020-10-07/22:31:58		Missing Values Validation Started!!
2020-10-07/22:35:12		Missing Values Validation Started!!
2020-10-07/22:39:43		Missing Values Validation Started!!
2020-10-15/19:24:21		Missing Values Validation Started!!
2020-10-15/19:27:34		Missing Values Validation Started!!
2020-10-15/19:28:43		Missing Values Validation Started!!
2020-10-15/19:29:10		Missing Values Validation Started!!
2020-10-15/19:30:52		Missing Values Validation Started!!
2020-10-15/19:37:11		Missing Values Validation Started!!
2020-10-15/19:40:03		Missing Values Validation Started!!
2020-10-15/19:43:33		Missing Values Validation Started!!
2020-10-15/19:47:13		Missing Values Validation Started!!
2020-10-16/19:49:29		Missing Values Validation Started!!
2020-10-17/13:24:19		Missing Values Validation Started!!
2020-10-17/13:41:24		Missing Values Validation Started!!
2020-11-04/19:33:29		Missing Values Validation Started!!
2020-11-08/19:59:28		Missing Values Validation Started!!
2020-11-08/21:38:11		Missing Values Validation Started!!
2020-11-08/21:39:35		Missing Values Validation Started!!
2020-11-08/21:44:02		Missing Values Validation Started!!
2020-11-08/21:49:18		Missing Values Validation Started!!
2020-11-08/21:54:37		Missing Values Validation Started!!
2020-11-08/21:57:26		Missing Values Validation Started!!
2020-11-09/21:35:09		Missing Values Validation Started!!
2020-12-22/21:44:52		Missing Values Validation Started!!
2020-12-25/12:28:09		Missing Values Validation Started!!
2020-12-29/23:24:15		Missing Values Validation Started!!
2020-12-29/23:47:21		Missing Values Validation Started!!
